{
	"info": {
		"_postman_id": "637a7d11-3fce-4537-b153-78f54176e3d8",
		"name": "MiniFaas Kumori Platform",
		"schema": "https://schema.getpostman.com/json/collection/v2.1.0/collection.json"
	},
	"item": [
		{
			"name": "0 Registry User",
			"request": {
				"method": "POST",
				"header": [],
				"body": {
					"mode": "raw",
					"raw": "{\n  \"username\": \"catarina\"\n}",
					"options": {
						"raw": {
							"language": "json"
						}
					}
				},
				"url": {
					"raw": "https://minifaas-cm2.vera.kumori.cloud/registeruser",
					"protocol": "https",
					"host": [
						"minifaas-cm2",
						"vera",
						"kumori",
						"cloud"
					],
					"path": [
						"registeruser"
					]
				}
			},
			"response": []
		},
		{
			"name": "1 Registy Function",
			"request": {
				"method": "POST",
				"header": [],
				"body": {
					"mode": "raw",
					"raw": "{\n            \"type\": \"javascript\",\n            \"function_name\": \"delaysuma\",\n            \"creator\": \"626169711802744833\",\n            \"code\": \"const delay = ms => new Promise(res => setTimeout(res, ms)); (async () =>{await delay(900);console.log(4+5)})()\"\n}",
					"options": {
						"raw": {
							"language": "json"
						}
					}
				},
				"url": {
					"raw": "https://minifaas-cm2.vera.kumori.cloud/registerfunc",
					"protocol": "https",
					"host": [
						"minifaas-cm2",
						"vera",
						"kumori",
						"cloud"
					],
					"path": [
						"registerfunc"
					],
					"query": [
						{
							"key": "name_function",
							"value": "suma",
							"disabled": true
						}
					]
				}
			},
			"response": []
		},
		{
			"name": "1.b Registy Function with params",
			"request": {
				"method": "POST",
				"header": [],
				"body": {
					"mode": "raw",
					"raw": "{\n            \"type\": \"maths\",\n            \"function_name\": \"areaTrapecio\",\n            \"creator\": \"631912068740612098\",\n            \"code\": \"((b+a)/2)*h\",\n            \"params\": \"b,a,h\"\n}",
					"options": {
						"raw": {
							"language": "json"
						}
					}
				},
				"url": {
					"raw": "https://minifaas-cm2.vera.kumori.cloud/registerfunc",
					"protocol": "https",
					"host": [
						"minifaas-cm2",
						"vera",
						"kumori",
						"cloud"
					],
					"path": [
						"registerfunc"
					]
				}
			},
			"response": []
		},
		{
			"name": "1.c Registy Simple Function",
			"request": {
				"method": "POST",
				"header": [],
				"body": {
					"mode": "raw",
					"raw": "{\n            \"type\": \"javascript\",\n            \"function_name\": \"divisionPastel1\",\n            \"creator\": \"629626994224103425\",\n            \"code\": \"let pastel=10000000;let repartir=5; console.log(pastel/repartir)\"\n}",
					"options": {
						"raw": {
							"language": "json"
						}
					}
				},
				"url": {
					"raw": "https://minifaas-cm2.vera.kumori.cloud/registerfunc?username=catarina",
					"protocol": "https",
					"host": [
						"minifaas-cm2",
						"vera",
						"kumori",
						"cloud"
					],
					"path": [
						"registerfunc"
					],
					"query": [
						{
							"key": "username",
							"value": "catarina"
						}
					]
				}
			},
			"response": []
		},
		{
			"name": "1.d Registy Function via Username",
			"request": {
				"method": "POST",
				"header": [],
				"body": {
					"mode": "raw",
					"raw": "{\n            \"type\": \"javascript\",\n            \"function_name\": \"fibonacci\",\n            \"code\": \"function fibonacci(num){var a = 1, b = 0, temp;while (num >= 0){temp = a;a = a + b;b = temp;num--;}return b;};console.log(fibonacci(24))\"\n}",
					"options": {
						"raw": {
							"language": "json"
						}
					}
				},
				"url": {
					"raw": "https://minifaas-cm2.vera.kumori.cloud/registeruserfunc?username=mamarbao",
					"protocol": "https",
					"host": [
						"minifaas-cm2",
						"vera",
						"kumori",
						"cloud"
					],
					"path": [
						"registeruserfunc"
					],
					"query": [
						{
							"key": "username",
							"value": "mamarbao"
						}
					]
				}
			},
			"response": []
		},
		{
			"name": "Optional B-Get All Users",
			"request": {
				"method": "GET",
				"header": [],
				"url": {
					"raw": "https://minifaas-cm2.vera.kumori.cloud/allusers",
					"protocol": "https",
					"host": [
						"minifaas-cm2",
						"vera",
						"kumori",
						"cloud"
					],
					"path": [
						"allusers"
					]
				}
			},
			"response": []
		},
		{
			"name": "Optional A-Get All Functions",
			"request": {
				"method": "GET",
				"header": [],
				"url": {
					"raw": "https://minifaas-cm2.vera.kumori.cloud/allfunc",
					"protocol": "https",
					"host": [
						"minifaas-cm2",
						"vera",
						"kumori",
						"cloud"
					],
					"path": [
						"allfunc"
					]
				}
			},
			"response": []
		},
		{
			"name": "Optional C-GET All sol Function",
			"request": {
				"method": "GET",
				"header": [],
				"url": {
					"raw": "https://minifaas-cm2.vera.kumori.cloud/allsolfunc",
					"protocol": "https",
					"host": [
						"minifaas-cm2",
						"vera",
						"kumori",
						"cloud"
					],
					"path": [
						"allsolfunc"
					]
				}
			},
			"response": []
		},
		{
			"name": "2. Launch Function",
			"protocolProfileBehavior": {
				"disableBodyPruning": true
			},
			"request": {
				"method": "GET",
				"header": [],
				"body": {
					"mode": "raw",
					"raw": "",
					"options": {
						"raw": {
							"language": "json"
						}
					}
				},
				"url": {
					"raw": "https://minifaas-cm2.vera.kumori.cloud/launch?name_function=divisionPastel1&username=mamarbao",
					"protocol": "https",
					"host": [
						"minifaas-cm2",
						"vera",
						"kumori",
						"cloud"
					],
					"path": [
						"launch"
					],
					"query": [
						{
							"key": "name_function",
							"value": "divisionPastel1"
						},
						{
							"key": "username",
							"value": "mamarbao"
						}
					]
				}
			},
			"response": []
		},
		{
			"name": "2. b Launch Function type math with params",
			"protocolProfileBehavior": {
				"disableBodyPruning": true
			},
			"request": {
				"method": "GET",
				"header": [],
				"body": {
					"mode": "raw",
					"raw": "",
					"options": {
						"raw": {
							"language": "json"
						}
					}
				},
				"url": {
					"raw": "https://minifaas-cm2.vera.kumori.cloud/launch?name_function=areaTrapecio&username=mamarbao&params_value=12,15,6",
					"protocol": "https",
					"host": [
						"minifaas-cm2",
						"vera",
						"kumori",
						"cloud"
					],
					"path": [
						"launch"
					],
					"query": [
						{
							"key": "name_function",
							"value": "areaTrapecio"
						},
						{
							"key": "username",
							"value": "mamarbao"
						},
						{
							"key": "params_value",
							"value": "12,15,6"
						}
					]
				}
			},
			"response": []
		},
		{
			"name": "2.c Launch func type maths without params",
			"request": {
				"method": "GET",
				"header": [],
				"url": {
					"raw": "https://minifaas-cm2.vera.kumori.cloud/launch?name_function=resta&username=mamarbao",
					"protocol": "https",
					"host": [
						"minifaas-cm2",
						"vera",
						"kumori",
						"cloud"
					],
					"path": [
						"launch"
					],
					"query": [
						{
							"key": "name_function",
							"value": "resta"
						},
						{
							"key": "username",
							"value": "mamarbao"
						}
					]
				}
			},
			"response": []
		},
		{
			"name": "3. Get User Resouces",
			"request": {
				"method": "GET",
				"header": [],
				"url": {
					"raw": "https://minifaas-cm2.vera.kumori.cloud/userResources?username=mamarbao",
					"protocol": "https",
					"host": [
						"minifaas-cm2",
						"vera",
						"kumori",
						"cloud"
					],
					"path": [
						"userResources"
					],
					"query": [
						{
							"key": "username",
							"value": "mamarbao"
						}
					]
				}
			},
			"response": []
		},
		{
			"name": "4. Get Current Stats of Faas",
			"request": {
				"method": "GET",
				"header": [],
				"url": {
					"raw": "https://minifaas-cm2.vera.kumori.cloud/currentstats?username=manager",
					"protocol": "https",
					"host": [
						"minifaas-cm2",
						"vera",
						"kumori",
						"cloud"
					],
					"path": [
						"currentstats"
					],
					"query": [
						{
							"key": "username",
							"value": "manager"
						}
					]
				},
				"description": "Get the current stats frame generated due to lanch requests to /lauch"
			},
			"response": []
		},
		{
			"name": "5. Take Decision",
			"request": {
				"method": "GET",
				"header": [],
				"url": {
					"raw": "https://minifaas-cm2.vera.kumori.cloud/takedecision?decision=kill&username=manager&type=worker&instances=1",
					"protocol": "https",
					"host": [
						"minifaas-cm2",
						"vera",
						"kumori",
						"cloud"
					],
					"path": [
						"takedecision"
					],
					"query": [
						{
							"key": "decision",
							"value": "kill"
						},
						{
							"key": "username",
							"value": "manager"
						},
						{
							"key": "type",
							"value": "worker"
						},
						{
							"key": "instances",
							"value": "1"
						}
					]
				}
			},
			"response": []
		},
		{
			"name": "6. Result Decision",
			"request": {
				"method": "GET",
				"header": [],
				"url": {
					"raw": "https://minifaas-cm2.vera.kumori.cloud/soldecision?uuid=54740ac0-6b32-11eb-8a98-2bd8dfaa91c4",
					"protocol": "https",
					"host": [
						"minifaas-cm2",
						"vera",
						"kumori",
						"cloud"
					],
					"path": [
						"soldecision"
					],
					"query": [
						{
							"key": "uuid",
							"value": "54740ac0-6b32-11eb-8a98-2bd8dfaa91c4"
						},
						{
							"key": "username",
							"value": "manager",
							"disabled": true
						},
						{
							"key": "type",
							"value": "worker",
							"disabled": true
						},
						{
							"key": "instances",
							"value": "1",
							"disabled": true
						}
					]
				}
			},
			"response": []
		}
	]
}